        {
            "apiVersion": "apps/v1",
            "kind": "Deployment",
            "metadata": {
                "name": "helloworld-deployment",
                "namespace": "helloworld-namespace",
                "labels": {
                    "lbkey1": "lbval1",
                    "lbkey2": "lbval2"
                }
            },
            "spec": {
                "progressDeadlineSeconds": 600,
                "replicas": 3,
                "revisionHistoryLimit": 10,
                "selector": {
                    "matchLabels": {
                        "lbkey1": "lbval1",
                        "lbkey2": "lbval2"
                    }
                },
                "strategy": {
                    "rollingUpdate": {
                        "maxSurge": 1,
                        "maxUnavailable": 0
                    },
                    "type": "RollingUpdate"
                },
                "template": {
                    "metadata": {
                        "labels": {
                            "lbkey1": "lbval1",
                            "lbkey2": "lbval2"
                        }
                    },
                    "spec": {
                        "containers": [
                            {
                                "image": "nginx:latest",
                                "imagePullPolicy": "Always",
                                "name": "helloworld",
                                "ports": [
                                    {
                                        "containerPort": 80,
                                        "protocol": "TCP"
                                    }
                                ],
                                "readinessProbe":{
                                    "initialDelaySeconds": 5,
                                    "timeoutSeconds": 1,
                                    "periodSeconds": 5,
                                    "failureThreshold": 2,
                                    "httpGet":{
                                      "path": "/",
                                      "port": 80
                                    }
                                },
                                "livenessProbe":{
                                    "initialDelaySeconds": 5,
                                    "timeoutSeconds": 1,
                                    "periodSeconds": 5,
                                    "failureThreshold": 2,
                                    "httpGet":{
                                      "path": "/",
                                      "port": 80
                                    }
                                },
                                "env": [
                                    {
                                        "name": "EG_ENV_VAR_1",
                                        "value": "val123"
                                    },
                                    {
                                        "name": "EG_ENV_VAR_2",
                                        "valueFrom": {
                                            "configMapKeyRef": {
                                                "name": "helloworld-configmap",
                                                "key": "configKey"
                                            }
                                        }
                                    },
                                    {
                                        "name": "EG_ENV_VAR_3",
                                        "valueFrom": {
                                            "secretKeyRef": {
                                                "name": "helloworld-secrets",
                                                "key": "secretKey"
                                            }
                                        }
                                    }
                                ]
    
                            }
                        ],
                        "dnsPolicy": "ClusterFirst",
                        "restartPolicy": "Always",
                        "schedulerName": "default-scheduler",
                        "securityContext": {},
                        "terminationGracePeriodSeconds": 30
                    }
                }
            }
        }   
